{
  "builds": [
    {
      "architecture": "x86_64",
      "valid": false,
      "compiler": "",
      "command": "",
      "config_name": "",
      "config_url": "",
      "log_url": "",
      "issues_occurrences": [],
      "misc": {
        "debug": true
      }
    },
    {
      "architecture": "ppc64",
      "valid": false,
      "compiler": "",
      "command": "",
      "config_name": "",
      "config_url": "",
      "log_url": "",
      "issues_occurrences": [],
      "misc": {
        "debug": false
      }
    },
    {
      "architecture": "aarch64",
      "valid": false,
      "compiler": "",
      "command": "",
      "config_name": "",
      "config_url": "",
      "log_url": "",
      "issues_occurrences": [],
      "misc": {}
    }
  ]
}
